<?xml version="1.0" encoding="UTF-8" standalone="no"?>
<!-- Creator: CorelDRAW X6 -->

<svg
   xmlns:dc="http://purl.org/dc/elements/1.1/"
   xmlns:cc="http://creativecommons.org/ns#"
   xmlns:rdf="http://www.w3.org/1999/02/22-rdf-syntax-ns#"
   xmlns:svg="http://www.w3.org/2000/svg"
   xmlns="http://www.w3.org/2000/svg"
   xmlns:sodipodi="http://sodipodi.sourceforge.net/DTD/sodipodi-0.dtd"
   xmlns:inkscape="http://www.inkscape.org/namespaces/inkscape"
   xml:space="preserve"
   width="280mm"
   height="190mm"
   version="1.1"
   style="shape-rendering:geometricPrecision; text-rendering:geometricPrecision; image-rendering:optimizeQuality; fill-rule:evenodd; clip-rule:evenodd"
   viewBox="0 0 28000 19000"
   id="svg134"
   sodipodi:docname="oloid.svg"
   inkscape:version="0.92.2 2405546, 2018-03-11"
   inkscape:export-filename="/home/fust/oovoo/static/images/logo.png"
   inkscape:export-xdpi="96"
   inkscape:export-ydpi="96"><metadata
   id="metadata138"><rdf:RDF><cc:Work
       rdf:about=""><dc:format>image/svg+xml</dc:format><dc:type
         rdf:resource="http://purl.org/dc/dcmitype/StillImage" /><dc:title></dc:title></cc:Work></rdf:RDF></metadata><sodipodi:namedview
   pagecolor="#ffffff"
   bordercolor="#666666"
   borderopacity="1"
   objecttolerance="10"
   gridtolerance="10"
   guidetolerance="10"
   inkscape:pageopacity="0"
   inkscape:pageshadow="2"
   inkscape:window-width="1362"
   inkscape:window-height="729"
   id="namedview136"
   showgrid="false"
   inkscape:showpageshadow="false"
   showborder="false"
   inkscape:zoom="0.75058114"
   inkscape:cx="298.64579"
   inkscape:cy="359.05512"
   inkscape:window-x="0"
   inkscape:window-y="18"
   inkscape:window-maximized="0"
   inkscape:current-layer="svg134"
   showguides="true"
   inkscape:guide-bbox="true"><sodipodi:guide
     position="33558.442,1128.0149"
     orientation="0,1"
     id="guide187"
     inkscape:locked="false" /></sodipodi:namedview>
 <defs
   id="defs96">
  <style
   type="text/css"
   id="style94">
   <![CDATA[
    .str0 {stroke:#2B2A29;stroke-width:17.64}
    .str1 {stroke:black;stroke-width:17.64}
    .fil2 {fill:none}
    .fil3 {fill:#2B2A29}
    .fil0 {fill:#FFE6AC}
    .fil1 {fill:black;fill-rule:nonzero}
   ]]>
  </style>
 
  
  
  
  
  
  
  
  
  
  
  
  
 </defs>
 <g
   id="g236"
   inkscape:export-xdpi="96"
   inkscape:export-ydpi="96"><path
     class="fil0 str0"
     d="m 26606.64,18401.152 c -2003,0 -3446,-849 -4466.001,-1945.002 -1200.001,-1290 -1874.001,-2876 -1874.001,-5505.002 0,2632.002 -746,4301.002 -1855,5482.002 -1400,1492.002 -3268,1971.002 -4494.001,1970.002 -1620.001,-2.001 -3129,-596.001 -4311.001,-1776.001 C 8368.638,15390.15 7572.6383,13795.15 7572.6383,10951.148 c 0,2464.001 -596.9997,4069.002 -1710.9981,5320.003 -1057.9994,1186.001 -2600.9975,2130.001 -4614.9973,2169.001 0,-3024.002 -30,-6087.003 -30,-9110.9991 0,-2614.0005 706.9997,-4302.0009 1955.9998,-5603.0014 C 4516.6411,2327.1511 6265.6402,1861.151 7571.6383,1861.151 c 1815.998,1 3484.9987,804.0002 4655.9977,2160.0006 1086.001,1256.0004 1690.001,2827.0007 1690.001,5308.0013 -17,-2634.0004 696,-4317.001 1989.001,-5631.0015 1309,-1330.0002 3053,-1850.0004 4361,-1838.0004 1987.002,18 3963.002,944.0002 5175.002,2846.0008 744,1167.0004 1210,2701.0008 1194,4661.0011 0,3024.9961 -30,6009.9971 -30,9033.9991 z"
     id="path99-3-6"
     style="clip-rule:evenodd;fill:#000000;fill-rule:evenodd;stroke:none;stroke-width:17.6400032;image-rendering:optimizeQuality;shape-rendering:geometricPrecision;text-rendering:geometricPrecision"
     inkscape:connector-curvature="0" /><path
     class="fil0 str0"
     d="m 25927.826,17871.985 c -2003,0 -3446,-849 -4466,-1945.001 -1200.001,-1290 -1874.001,-2876 -1874.001,-5505.002 0,2632.002 -746,4301.002 -1855,5482.002 -1400,1492.001 -3268,1971.001 -4494,1970.001 -1620.001,-2 -3129,-596 -4311.0009,-1776 -1237.9991,-1237.001 -2033.9988,-2832.001 -2033.9988,-5676.003 0,2464.001 -596.9997,4069.002 -1710.9988,5320.003 -1057.9994,1186 -2600.9988,2130 -4614.99917,2169 0,-3024.001 -30,-6087.002 -30,-9111.0015 0,-2614.0003 707.00007,-4302.0005 1956.00067,-5603.0008 1343.9991,-1399.0001 3092.9982,-1865.0002 4398.9973,-1865.0002 1815.9991,1 3484.9997,804.0001 4655.9987,2160.0003 1086.001,1256.0003 1690.001,2827.0003 1690.001,5308.0007 -17,-2634.0002 696,-4317.0005 1989,-5631.0008 1309,-1330.0001 3053,-1850.0002 4361,-1838.0002 1987.001,18 3963.001,944.0001 5175.001,2846.0004 744,1167.0003 1210,2701.0005 1194,4661.0006 0,3024.9995 -30,6010.0005 -30,9034.0015 z"
     id="path99-3"
     style="clip-rule:evenodd;fill:#ff0000;fill-rule:evenodd;stroke:none;stroke-width:17.6400013;image-rendering:optimizeQuality;shape-rendering:geometricPrecision;text-rendering:geometricPrecision"
     inkscape:connector-curvature="0" /></g>
</svg>